RESULT OF net user 
TIMESTAMP: 2022-02-21 08:35:37,36 Romance Standard Time 
-------------------------------------------- 

Cuentas de usuario de \\ALUMNO-PC

-------------------------------------------------------------------------------
Administrador            alumno                   Invitado                 
paraCompartir            
Se ha completado el comando correctamente.

